<svg width="70" height="70" viewBox="0 0 70 70" fill="none" xmlns="http://www.w3.org/2000/svg">
<rect opacity="0.3" width="70" height="70" rx="35" fill="url(#paint0_radial)"/>
<path fill-rule="evenodd" clip-rule="evenodd" d="M30.272 17.3928L30.272 28.6428C30.272 29.3331 30.8316 29.8928 31.522 29.8928C32.2123 29.8928 32.772 29.3331 32.772 28.6428L32.772 20.4105L52.7151 40.3537L54.4829 38.5859L34.5397 18.6428L42.772 18.6428C43.4623 18.6428 44.022 18.0831 44.022 17.3928C44.022 16.7024 43.4623 16.1428 42.772 16.1428L31.522 16.1428C30.8316 16.1428 30.272 16.7024 30.272 17.3928ZM40.7199 53.5991L40.7199 42.3491C40.7199 41.6587 40.1603 41.0991 39.4699 41.0991C38.7795 41.0991 38.2199 41.6587 38.2199 42.3491V50.5813L18.2767 30.6382L16.509 32.4059L36.4521 52.3491L28.2199 52.3491C27.5295 52.3491 26.9699 52.9087 26.9699 53.5991C26.9699 54.2895 27.5295 54.8491 28.2199 54.8491H39.4699C40.1603 54.8491 40.7199 54.2894 40.7199 53.5991Z" fill="#A4C3E6"/>
<defs>
<radialGradient id="paint0_radial" cx="0" cy="0" r="1" gradientUnits="userSpaceOnUse" gradientTransform="translate(35 35) rotate(45) scale(49.4975 45.7091)">
<stop offset="0.473958" stop-color="#C3E4FF"/>
<stop offset="1" stop-color="#92BCEC"/>
</radialGradient>
</defs>
</svg>
