<svg width="70" height="70" viewBox="0 0 70 70" fill="none" xmlns="http://www.w3.org/2000/svg">
<rect opacity="0.3" width="70" height="70" rx="35" fill="url(#paint0_radial)"/>
<path d="M56.9453 43.5488V43.6371L57.0285 43.6666C58.6854 44.2542 59.875 45.8365 59.875 47.6914C59.875 50.0455 57.9596 51.9609 55.6055 51.9609H14.3945C12.0404 51.9609 10.125 50.0455 10.125 47.6914C10.125 45.8365 11.3146 44.2542 12.9715 43.6666L13.0547 43.6371V43.5488V38.9023C13.0547 34.1069 14.6008 29.5492 17.5264 25.7211C20.1232 22.3231 23.7141 19.7169 27.723 18.2979L27.8021 18.2699L27.8061 18.1861C27.9151 15.9284 29.7861 14.125 32.0703 14.125H37.9297C40.2139 14.125 42.0849 15.9284 42.1939 18.1861L42.1979 18.2699L42.277 18.2979C46.2859 19.7169 49.8768 22.3231 52.4736 25.7211C55.3992 29.5492 56.9453 34.1069 56.9453 38.9023V43.5488ZM21.9414 25.147V24.8551L21.7302 25.0565C18.006 28.607 15.7344 33.5842 15.7344 38.9023V43.2969V43.4219H15.8594H54.1406H54.2656V43.2969V38.9023C54.2656 33.5842 51.994 28.607 48.2698 25.0565L48.0586 24.8551V25.147V30.1133C48.0586 30.8532 47.4587 31.4531 46.7188 31.4531C45.9788 31.4531 45.3789 30.8532 45.3789 30.1133V22.8493V22.7808L45.3212 22.744C44.3921 22.151 43.4067 21.6335 42.3723 21.2028L42.1992 21.1307V21.3182V33.043C42.1992 33.7829 41.5993 34.3828 40.8594 34.3828C40.1194 34.3828 39.5195 33.7829 39.5195 33.043V19.2669H39.5196L39.5195 19.264L39.5195 19.2544V18.3945C39.5195 17.5178 38.8064 16.8047 37.9297 16.8047H32.0703C31.1936 16.8047 30.4805 17.5178 30.4805 18.3945V19.2548L30.4805 19.2616L30.4805 19.2632L30.4805 19.2636L30.4805 19.2638L30.4805 19.2638V19.2668V33.043C30.4805 33.7829 29.8806 34.3828 29.1406 34.3828C28.4007 34.3828 27.8008 33.7829 27.8008 33.043V21.3182V21.1307L27.6277 21.2028C26.5933 21.6334 25.6079 22.1509 24.6788 22.744L24.6211 22.7808V22.8493V30.1133C24.6211 30.8532 24.0212 31.4531 23.2812 31.4531C22.5413 31.4531 21.9414 30.8532 21.9414 30.1133V25.147ZM14.3945 49.2812H55.6055C56.4822 49.2812 57.1953 48.5682 57.1953 47.6914C57.1953 46.8147 56.4822 46.1016 55.6055 46.1016H14.3945C13.5178 46.1016 12.8047 46.8147 12.8047 47.6914C12.8047 48.5682 13.5178 49.2812 14.3945 49.2812Z" fill="#A4C3E6" stroke="white" stroke-width="0.25"/>
<defs>
<radialGradient id="paint0_radial" cx="0" cy="0" r="1" gradientUnits="userSpaceOnUse" gradientTransform="translate(35 35) rotate(45) scale(49.4975 45.7091)">
<stop offset="0.473958" stop-color="#C3E4FF"/>
<stop offset="1" stop-color="#92BCEC"/>
</radialGradient>
</defs>
</svg>
