<svg width="64" height="29" viewBox="0 0 64 29" fill="none" xmlns="http://www.w3.org/2000/svg">
<path d="M59.6789 4.2028C56.7378 1.4926 52.5902 0 48 0C42.3397 0 38.079 2.65294 35.0934 5.59603C36.2279 7.01358 37.1117 8.37051 37.7562 9.47155C40.0496 6.78373 43.484 4.06814 48 4.06814C54.3739 4.06814 59 8.25985 59 14.0351C59 19.8103 54.3739 24.002 48 24.002C38.8881 24.002 34.4136 13.4926 34.3708 13.3894L34.3584 13.3602C34.1226 12.8146 28.4403 0 16 0C11.4097 0 7.26225 1.4926 4.32113 4.2028C1.53463 6.77061 0 10.2625 0 14.0351C0 17.8077 1.53463 21.2996 4.32113 23.8674C7.26225 26.5776 11.4097 28.0702 16 28.0702C21.7067 28.0702 25.9458 25.4839 28.9055 22.5832C27.7738 21.1659 26.8974 19.8074 26.2541 18.6885C23.9911 21.3444 20.5821 24.002 16 24.002C9.62613 24.002 5 19.8103 5 14.0351C5 8.25985 9.62613 4.06814 16 4.06814C24.7941 4.06814 29.4885 14.3672 29.6383 14.7024C29.9704 15.4989 35.4193 28.0702 48 28.0702C52.5902 28.0702 56.7378 26.5776 59.6789 23.8674C62.4654 21.2996 64 17.8077 64 14.0351C64 10.2625 62.4654 6.77061 59.6789 4.2028Z" fill="#A4C3E6"/>
</svg>
