<svg width="1046" height="2" viewBox="0 0 1046 2" fill="none" xmlns="http://www.w3.org/2000/svg">
<line x1="1" y1="1" x2="1045" y2="1" stroke="#CCD1E0" stroke-width="2" stroke-linecap="round" stroke-dasharray="3 4"/>
</svg>
