<svg width="697" height="2" viewBox="0 0 697 2" fill="none" xmlns="http://www.w3.org/2000/svg">
<line x1="1" y1="1" x2="696" y2="1.00006" stroke="#CCD1E0" stroke-width="2" stroke-linecap="round" stroke-dasharray="3 4"/>
</svg>
