<svg width="70" height="70" viewBox="0 0 70 70" fill="none" xmlns="http://www.w3.org/2000/svg">
<rect opacity="0.3" width="70" height="70" rx="35" fill="url(#paint0_radial)"/>
<path d="M54.9237 36.1089C54.7346 35.7219 54.7346 35.2782 54.9237 34.8914L56.6767 31.3053C57.6527 29.3087 56.8794 26.9289 54.9162 25.8873L51.3903 24.0165C51.0099 23.8147 50.7491 23.4556 50.6747 23.0316L49.9851 19.1C49.6011 16.9111 47.5763 15.4401 45.3762 15.7514L41.4241 16.3105C40.9975 16.3707 40.5757 16.2335 40.2663 15.9342L37.3976 13.159C35.8002 11.6137 33.2979 11.6136 31.7006 13.159L28.8318 15.9345C28.5223 16.2339 28.1005 16.3708 27.674 16.3107L23.7219 15.7517C21.5211 15.4402 19.497 16.9114 19.113 19.1003L18.4234 23.0317C18.349 23.4558 18.0882 23.8148 17.7079 24.0166L14.182 25.8875C12.2188 26.929 11.4456 29.309 12.4215 31.3056L14.1744 34.8915C14.3635 35.2785 14.3635 35.7222 14.1744 36.109L12.4214 39.695C11.4455 41.6916 12.2188 44.0714 14.1819 45.113L17.7078 46.9838C18.0882 47.1856 18.349 47.5447 18.4234 47.9687L19.113 51.9003C19.4626 53.893 21.1713 55.2905 23.135 55.2903C23.3285 55.2903 23.5247 55.2767 23.722 55.2488L27.6741 54.6898C28.1003 54.6293 28.5224 54.7667 28.8319 55.066L31.7006 57.8412C32.4994 58.6139 33.5241 59.0002 34.5491 59.0001C35.5738 59 36.599 58.6138 37.3975 57.8412L40.2663 55.066C40.5758 54.7667 40.9977 54.6299 41.4241 54.6898L45.3762 55.2488C47.5773 55.5602 49.6011 54.0891 49.9851 51.9002L50.6748 47.9688C50.7492 47.5447 51.01 47.1857 51.3903 46.9838L54.9162 45.113C56.8794 44.0715 57.6527 41.6915 56.6767 39.6949L54.9237 36.1089ZM53.6457 42.7184L50.1198 44.5892C48.9956 45.1857 48.2247 46.2467 48.0048 47.5003L47.3152 51.4317C47.1853 52.1723 46.5006 52.6698 45.7559 52.5647L41.8038 52.0056C40.5434 51.8271 39.2963 52.2327 38.3815 53.1176L35.5127 55.8927C34.9724 56.4153 34.1258 56.4153 33.5853 55.8927L30.7166 53.1175C29.9435 52.3696 28.9328 51.9643 27.8777 51.9643C27.6844 51.9643 27.4895 51.9779 27.2943 52.0055L23.3422 52.5646C22.5981 52.6698 21.9129 52.1722 21.7829 51.4316L21.0932 47.5001C20.8733 46.2465 20.1024 45.1855 18.9782 44.5891L15.4523 42.7183C14.788 42.3659 14.5264 41.5607 14.8566 40.8852L16.6095 37.2992C17.1684 36.1558 17.1684 34.8444 16.6095 33.701L14.8566 30.1149C14.5264 29.4394 14.788 28.6343 15.4523 28.2819L18.9782 26.4111C20.1023 25.8145 20.8733 24.7535 21.0931 23.4999L21.7827 19.5685C21.9127 18.8279 22.5973 18.3303 23.342 18.4355L27.2941 18.9946C28.554 19.1729 29.8016 18.7675 30.7164 17.8826L33.5852 15.1075C34.1255 14.5848 34.9721 14.5848 35.5126 15.1075L38.3814 17.8826C39.2961 18.7676 40.5435 19.1729 41.8036 18.9946L45.7557 18.4355C46.4999 18.3302 47.1852 18.8279 47.315 19.5685L48.0046 23.5C48.2246 24.7536 48.9955 25.8147 50.1197 26.4111L53.6456 28.2819C54.3098 28.6343 54.5714 29.4394 54.2412 30.1149L52.4883 33.7009C51.9294 34.8442 51.9294 36.1558 52.4883 37.2991L54.2412 40.885C54.5715 41.5607 54.3099 42.3659 53.6457 42.7184Z" fill="#A4C3E6"/>
<path d="M44.4524 25.5966C43.9231 25.0673 43.0649 25.0673 42.5356 25.5966L24.6455 43.4868C24.1162 44.0161 24.1162 44.8743 24.6455 45.4036C24.9102 45.6682 25.2571 45.8006 25.6039 45.8006C25.9507 45.8006 26.2977 45.6683 26.5622 45.4036L44.4523 27.5135C44.9817 26.9841 44.9817 26.126 44.4524 25.5966Z" fill="#A4C3E6"/>
<path d="M29.1279 23.3017C26.3877 23.3017 24.1582 25.5312 24.1582 28.2715C24.1582 31.0118 26.3877 33.2412 29.1279 33.2412C31.8682 33.2412 34.0977 31.0118 34.0977 28.2715C34.0977 25.5312 31.8682 23.3017 29.1279 23.3017ZM29.1279 30.5304C27.8824 30.5304 26.869 29.5171 26.869 28.2714C26.869 27.0258 27.8824 26.0125 29.1279 26.0125C30.3735 26.0125 31.387 27.0258 31.387 28.2714C31.3869 29.5171 30.3735 30.5304 29.1279 30.5304Z" fill="#A4C3E6"/>
<path d="M39.9707 37.7591C37.2304 37.7591 35.001 39.9885 35.001 42.7288C35.001 45.4691 37.2304 47.6986 39.9707 47.6986C42.711 47.6986 44.9405 45.4691 44.9405 42.7288C44.9405 39.9885 42.711 37.7591 39.9707 37.7591ZM39.9707 44.9877C38.7251 44.9877 37.7117 43.9744 37.7117 42.7288C37.7117 41.4832 38.7251 40.4699 39.9707 40.4699C41.2163 40.4699 42.2296 41.4832 42.2296 42.7288C42.2296 43.9744 41.2163 44.9877 39.9707 44.9877Z" fill="#A4C3E6"/>
<defs>
<radialGradient id="paint0_radial" cx="0" cy="0" r="1" gradientUnits="userSpaceOnUse" gradientTransform="translate(35 35) rotate(45) scale(49.4975 45.7091)">
<stop offset="0.473958" stop-color="#C3E4FF"/>
<stop offset="1" stop-color="#92BCEC"/>
</radialGradient>
</defs>
</svg>
